{
  "watch": ["src/**/*.ts"],
  "ext": "ts,tsx",
  "ignore": ["src/pages/**/*", "src/@front/**/*"],
  "execMap": {
    "ts": "NODE_OPTIONS='--trace-deprecation --trace-warnings' ts-node -r tsconfig-paths/register --project tsconfig.build.json"
  },
  "env": {
    "NODE_ENV": "development"
  }
}
